<svg xmlns="http://www.w3.org/2000/svg" width="17" height="18" viewBox="0 0 17 18" fill="none">
<g clip-path="url(#clip0_3467_1727)">
<path d="M10.5655 7.3L8.5 0.5L6.4345 7.3H0L5.253 11.0485L3.2555 17.5L8.5 13.5135L13.753 17.5L11.7555 11.0485L17 7.3H10.5655Z" fill="#FFB800"/>
</g>
<defs>
<clipPath id="clip0_3467_1727">
<rect width="17" height="17" fill="white" transform="translate(0 0.5)"/>
</clipPath>
</defs>
</svg>